EESchema Schematic File Version 4
LIBS:PrismDDIN18-cache
EELAYER 26 0
EELAYER END
$Descr A3 16535 11693
encoding utf-8
Sheet 1 1
Title "Direct Drive Arduino Nixie Clock IN-18"
Date "2017-06-04"
Rev "Rev 001"
Comp "Ian's Nixie Clocks"
Comment1 ""
Comment2 ""
Comment3 ""
Comment4 ""
$EndDescr
$Comp
L PrismDDIN18-rescue:IN-18 S10
U 1 1 58A13ED3
P 7300 6050
F 0 "S10" H 7100 6875 45  0000 L BNN
F 1 "IN-18" H 7300 6050 45  0001 L BNN
F 2 "NixieClockMaster:nixies-us-IN-18" H 7300 6050 60  0001 C CNN
F 3 "" H 7300 6050 60  0001 C CNN
	1    7300 6050
	1    0    0    -1  
$EndComp
$Comp
L PrismDDIN18-rescue:IN-18 M1
U 1 1 58A258F8
P 6050 6050
F 0 "M1" H 5850 6875 45  0000 L BNN
F 1 "IN-18" H 6050 6050 45  0001 L BNN
F 2 "NixieClockMaster:nixies-us-IN-18" H 6050 6050 60  0001 C CNN
F 3 "" H 6050 6050 60  0001 C CNN
	1    6050 6050
	1    0    0    -1  
$EndComp
$Comp
L PrismDDIN18-rescue:IN-18 M10
U 1 1 58A25A60
P 4800 6050
F 0 "M10" H 4600 6875 45  0000 L BNN
F 1 "IN-18" H 4800 6050 45  0001 L BNN
F 2 "NixieClockMaster:nixies-us-IN-18" H 4800 6050 60  0001 C CNN
F 3 "" H 4800 6050 60  0001 C CNN
	1    4800 6050
	1    0    0    -1  
$EndComp
$Comp
L PrismDDIN18-rescue:IN-18 S1
U 1 1 58A25AC1
P 8600 6050
F 0 "S1" H 8400 6875 45  0000 L BNN
F 1 "IN-18" H 8600 6050 45  0001 L BNN
F 2 "NixieClockMaster:nixies-us-IN-18" H 8600 6050 60  0001 C CNN
F 3 "" H 8600 6050 60  0001 C CNN
	1    8600 6050
	1    0    0    -1  
$EndComp
$Comp
L PrismDDIN18-rescue:IN-18 H10
U 1 1 58A25B0C
P 2200 6050
F 0 "H10" H 2000 6875 45  0000 L BNN
F 1 "IN-18" H 2200 6050 45  0001 L BNN
F 2 "NixieClockMaster:nixies-us-IN-18" H 2200 6050 60  0001 C CNN
F 3 "" H 2200 6050 60  0001 C CNN
	1    2200 6050
	1    0    0    -1  
$EndComp
$Comp
L PrismDDIN18-rescue:IN-18 H1
U 1 1 58A259F3
P 3550 6050
F 0 "H1" H 3350 6875 45  0000 L BNN
F 1 "IN-18" H 3550 6050 45  0001 L BNN
F 2 "NixieClockMaster:nixies-us-IN-18" H 3550 6050 60  0001 C CNN
F 3 "" H 3550 6050 60  0001 C CNN
	1    3550 6050
	1    0    0    -1  
$EndComp
$Comp
L PrismDDIN18-rescue:R R1
U 1 1 59343AA6
P 2600 5600
F 0 "R1" V 2680 5600 50  0000 C CNN
F 1 "10k" V 2600 5600 50  0000 C CNN
F 2 "NixieClockMaster:R_Short_P7.62mm_Horizontal" V 2530 5600 50  0001 C CNN
F 3 "" H 2600 5600 50  0000 C CNN
	1    2600 5600
	1    0    0    -1  
$EndComp
Wire Wire Line
	2500 5950 2600 5950
Wire Wire Line
	2600 5950 2600 5750
Wire Wire Line
	3900 5050 3900 5450
$Comp
L PrismDDIN18-rescue:R R2
U 1 1 59343B3B
P 3900 5600
F 0 "R2" V 3980 5600 50  0000 C CNN
F 1 "10k" V 3900 5600 50  0000 C CNN
F 2 "NixieClockMaster:R_Short_P7.62mm_Horizontal" V 3830 5600 50  0001 C CNN
F 3 "" H 3900 5600 50  0000 C CNN
	1    3900 5600
	1    0    0    -1  
$EndComp
Wire Wire Line
	3900 5750 3900 5950
Wire Wire Line
	3900 5950 3850 5950
$Comp
L PrismDDIN18-rescue:R R3
U 1 1 59343B93
P 5150 5600
F 0 "R3" V 5230 5600 50  0000 C CNN
F 1 "10k" V 5150 5600 50  0000 C CNN
F 2 "NixieClockMaster:R_Short_P7.62mm_Horizontal" V 5080 5600 50  0001 C CNN
F 3 "" H 5150 5600 50  0000 C CNN
	1    5150 5600
	1    0    0    -1  
$EndComp
$Comp
L PrismDDIN18-rescue:R R4
U 1 1 59343C0B
P 6400 5600
F 0 "R4" V 6480 5600 50  0000 C CNN
F 1 "10k" V 6400 5600 50  0000 C CNN
F 2 "NixieClockMaster:R_Short_P7.62mm_Horizontal" V 6330 5600 50  0001 C CNN
F 3 "" H 6400 5600 50  0000 C CNN
	1    6400 5600
	1    0    0    -1  
$EndComp
Wire Wire Line
	5100 5950 5150 5950
Wire Wire Line
	5150 5950 5150 5750
Wire Wire Line
	5150 5050 5150 5450
Connection ~ 3900 5050
Wire Wire Line
	6350 5950 6400 5950
Wire Wire Line
	6400 5950 6400 5750
Wire Wire Line
	6400 5050 6400 5450
Connection ~ 5150 5050
$Comp
L PrismDDIN18-rescue:R R5
U 1 1 59343CF9
P 7650 5600
F 0 "R5" V 7730 5600 50  0000 C CNN
F 1 "10k" V 7650 5600 50  0000 C CNN
F 2 "NixieClockMaster:R_Short_P7.62mm_Horizontal" V 7580 5600 50  0001 C CNN
F 3 "" H 7650 5600 50  0000 C CNN
	1    7650 5600
	1    0    0    -1  
$EndComp
$Comp
L PrismDDIN18-rescue:R R6
U 1 1 59343D67
P 8950 5600
F 0 "R6" V 9030 5600 50  0000 C CNN
F 1 "10k" V 8950 5600 50  0000 C CNN
F 2 "NixieClockMaster:R_Short_P7.62mm_Horizontal" V 8880 5600 50  0001 C CNN
F 3 "" H 8950 5600 50  0000 C CNN
	1    8950 5600
	1    0    0    -1  
$EndComp
Wire Wire Line
	8900 5950 8950 5950
Wire Wire Line
	8950 5950 8950 5750
Wire Wire Line
	7600 5950 7650 5950
Wire Wire Line
	7650 5950 7650 5750
Wire Wire Line
	7650 5050 7650 5450
Connection ~ 6400 5050
Connection ~ 7650 5050
NoConn ~ 8900 6150
NoConn ~ 7600 6150
NoConn ~ 6350 6150
NoConn ~ 5100 6150
NoConn ~ 3850 6150
NoConn ~ 2500 6150
Wire Wire Line
	2600 5050 3900 5050
$Comp
L power:GND #PWR01
U 1 1 59344759
P 2450 8500
F 0 "#PWR01" H 2450 8250 50  0001 C CNN
F 1 "GND" H 2450 8350 50  0000 C CNN
F 2 "" H 2450 8500 50  0000 C CNN
F 3 "" H 2450 8500 50  0000 C CNN
	1    2450 8500
	1    0    0    -1  
$EndComp
$Comp
L power:GND #PWR02
U 1 1 593447A1
P 3750 8500
F 0 "#PWR02" H 3750 8250 50  0001 C CNN
F 1 "GND" H 3750 8350 50  0000 C CNN
F 2 "" H 3750 8500 50  0000 C CNN
F 3 "" H 3750 8500 50  0000 C CNN
	1    3750 8500
	1    0    0    -1  
$EndComp
$Comp
L power:GND #PWR03
U 1 1 5934482F
P 5050 8500
F 0 "#PWR03" H 5050 8250 50  0001 C CNN
F 1 "GND" H 5050 8350 50  0000 C CNN
F 2 "" H 5050 8500 50  0000 C CNN
F 3 "" H 5050 8500 50  0000 C CNN
	1    5050 8500
	1    0    0    -1  
$EndComp
$Comp
L power:GND #PWR04
U 1 1 593448BE
P 6350 8500
F 0 "#PWR04" H 6350 8250 50  0001 C CNN
F 1 "GND" H 6350 8350 50  0000 C CNN
F 2 "" H 6350 8500 50  0000 C CNN
F 3 "" H 6350 8500 50  0000 C CNN
	1    6350 8500
	1    0    0    -1  
$EndComp
$Comp
L power:GND #PWR05
U 1 1 59344984
P 7650 8500
F 0 "#PWR05" H 7650 8250 50  0001 C CNN
F 1 "GND" H 7650 8350 50  0000 C CNN
F 2 "" H 7650 8500 50  0000 C CNN
F 3 "" H 7650 8500 50  0000 C CNN
	1    7650 8500
	1    0    0    -1  
$EndComp
$Comp
L power:GND #PWR06
U 1 1 59344AA9
P 8950 8500
F 0 "#PWR06" H 8950 8250 50  0001 C CNN
F 1 "GND" H 8950 8350 50  0000 C CNN
F 2 "" H 8950 8500 50  0000 C CNN
F 3 "" H 8950 8500 50  0000 C CNN
	1    8950 8500
	1    0    0    -1  
$EndComp
Wire Wire Line
	7550 7850 7650 7850
Text Notes 800  9350 0    70   ~ 0
Power regulator
$Comp
L PrismDDIN18-rescue:RCL_C-EU050-024X044 C11
U 1 1 59345978
P 2400 10500
F 0 "C11" H 2200 10300 70  0000 L BNN
F 1 "100nF" H 2050 10500 70  0000 L BNN
F 2 "NixieClockMaster:C025-024X044" H 2390 10290 70  0001 L TNN
F 3 "" H 2400 10500 60  0001 C CNN
	1    2400 10500
	1    0    0    1   
$EndComp
$Comp
L PrismDDIN18-rescue:CP C12
U 1 1 5934597D
P 4450 10200
F 0 "C12" H 4500 10050 70  0000 L BNN
F 1 "220uF 10V" V 4400 9800 70  0000 L BNN
F 2 "NixieClockMaster:C_Radial_D6.3_L11.2_P2.5" H 4440 9990 70  0001 L TNN
F 3 "" H 4450 10200 60  0001 C CNN
F 4 "Value" H 4300 9900 60  0001 C CNN "Fieldname"
F 5 "+" V 4427 10216 50  0000 L BNN "Field5"
	1    4450 10200
	1    0    0    -1  
$EndComp
$Comp
L power:GND #GND08
U 1 1 59345981
P 5100 10800
F 0 "#GND08" H 5000 10700 70  0001 L BNN
F 1 "GND" H 5000 10700 70  0001 L BNN
F 2 "" H 5100 10800 60  0001 C CNN
F 3 "" H 5100 10800 60  0001 C CNN
	1    5100 10800
	1    0    0    -1  
$EndComp
$Comp
L PrismDDIN18-rescue:LED_LED3MM LED7
U 1 1 59345987
P 4850 10400
F 0 "LED7" V 4990 10220 70  0000 L BNN
F 1 "Power" V 5075 10220 70  0000 L BNN
F 2 "NixieClockMaster:LED_3MM" H 4840 10190 70  0001 L TNN
F 3 "" H 4850 10400 60  0001 C CNN
	1    4850 10400
	1    0    0    -1  
$EndComp
$Comp
L PrismDDIN18-rescue:RCL_R-EU_0207_2V R8
U 1 1 59345996
P 4850 10000
F 0 "R8" H 4750 10050 70  0000 L BNN
F 1 "3k" H 4800 9850 70  0000 L BNN
F 2 "NixieClockMaster:R-0207_2V" H 4840 9790 70  0001 L TNN
F 3 "" H 4850 10000 60  0001 C CNN
	1    4850 10000
	0    1    1    0   
$EndComp
$Comp
L PrismDDIN18-rescue:RCL_R-EU_0207_2V R9
U 1 1 59345999
P 14700 4100
F 0 "R9" H 14600 4150 70  0000 L BNN
F 1 "10k" H 14600 3950 70  0000 L BNN
F 2 "NixieClockMaster:R-0207_2V" H 14690 3890 70  0001 L TNN
F 3 "" H 14700 4100 60  0001 C CNN
	1    14700 4100
	0    -1   -1   0   
$EndComp
$Comp
L PrismDDIN18-rescue:CONN_01X04 SV1
U 1 1 593459A3
P 850 10450
F 0 "SV1" H 801 10680 70  0000 L BNN
F 1 "PWR" H 800 10050 70  0000 L BNN
F 2 "NixieClockMaster:Header_MA04-1" H 840 10240 70  0001 L TNN
F 3 "" H 850 10450 60  0001 C CNN
	1    850  10450
	-1   0    0    1   
$EndComp
$Comp
L Connector_Generic:Conn_01x04 SV4
U 1 1 593459A4
P 14200 3100
F 0 "SV4" H 14150 2700 70  0000 L BNN
F 1 "CONN_RTC" H 14050 3350 70  0000 L BNN
F 2 "NixieClockMaster:Header_MA04-1" H 14190 2890 70  0001 L TNN
F 3 "" H 14200 3100 60  0001 C CNN
	1    14200 3100
	-1   0    0    1   
$EndComp
Text Label 13050 8500 0    65   ~ 0
BTN1
Text Label 14100 4050 0    65   ~ 0
BTN1
Text Label 14900 4400 0    65   ~ 0
DLS
Text Label 14950 8800 2    65   ~ 0
DLS
Text Label 14100 4150 0    65   ~ 0
DLS
Text Label 14100 4250 0    65   ~ 0
GND
Text Label 14600 2900 0    65   ~ 0
GND
Text Label 13050 8700 0    65   ~ 0
SCL
Text Label 14600 3200 0    65   ~ 0
SCL
Text Label 13050 8600 0    65   ~ 0
SDA
Text Label 14600 3100 0    65   ~ 0
SDA
Text Label 5300 9700 0    65   ~ 0
VCC
Text Label 14600 3000 0    65   ~ 0
3V3
Text Label 14100 3850 0    65   ~ 0
VCC
Text Label 1250 11000 0    65   ~ 0
VCC
Text Label 2500 9700 0    65   ~ 0
VIN
Text Label 14700 4300 3    20   ~ 0
DLS
$Comp
L PrismDDIN18-rescue:TEST_1P W1
U 1 1 593459AF
P 4850 9550
F 0 "W1" H 4850 9820 50  0000 C CNN
F 1 "VCC" H 4850 9750 50  0000 C CNN
F 2 "NixieClockMaster:TESTPAD_P1-13" H 5050 9550 50  0001 C CNN
F 3 "" H 5050 9550 50  0000 C CNN
	1    4850 9550
	1    0    0    -1  
$EndComp
$Comp
L PrismDDIN18-rescue:TEST_1P W2
U 1 1 593459B0
P 5350 10600
F 0 "W2" H 5350 10870 50  0000 C CNN
F 1 "GND" H 5350 10800 50  0000 C CNN
F 2 "NixieClockMaster:TESTPAD_P1-13" H 5550 10600 50  0001 C CNN
F 3 "" H 5550 10600 50  0000 C CNN
	1    5350 10600
	1    0    0    -1  
$EndComp
$Comp
L PrismDDIN18-rescue:D-RESCUE-KickstarterNixie D1
U 1 1 593459B3
P 1650 10200
F 0 "D1" H 1650 10300 70  0000 C CNN
F 1 "UF4007" H 1650 10050 70  0000 C CNN
F 2 "NixieClockMaster:Diode_DO-41_1N4001" H 1650 10200 50  0001 C CNN
F 3 "" H 1650 10200 50  0000 C CNN
	1    1650 10200
	-1   0    0    1   
$EndComp
Text Label 1350 10400 1    20   ~ 0
PWR_INPUT
Text Label 2500 10000 0    20   ~ 0
PWR_VIN
Text Label 1700 10700 0    20   ~ 0
PWR_GND_IN
$Comp
L PrismDDIN18-rescue:BARREL_JACK CON1
U 1 1 593459B5
P 13900 2000
F 0 "CON1" H 13900 2250 50  0000 C CNN
F 1 "BARREL_JACK" H 13900 1800 50  0000 C CNN
F 2 "NixieClockMaster:BARREL_JACK" H 13900 2000 50  0001 C CNN
F 3 "" H 13900 2000 50  0000 C CNN
	1    13900 2000
	1    0    0    -1  
$EndComp
Text Label 14950 1900 0    60   ~ 0
PWR_INPUT
$Comp
L power:GND #GND011
U 1 1 593459B6
P 14950 2200
F 0 "#GND011" H 14850 2100 70  0001 L BNN
F 1 "GND" H 14850 2000 70  0000 L BNN
F 2 "" H 14950 2200 60  0001 C CNN
F 3 "" H 14950 2200 60  0001 C CNN
	1    14950 2200
	1    0    0    -1  
$EndComp
$Comp
L PrismDDIN18-rescue:LM2596T-5 IC1
U 1 1 593459B8
P 3150 10100
F 0 "IC1" H 2750 10450 50  0000 L CNN
F 1 "LM2596T-5" H 2750 10350 50  0000 L CNN
F 2 "NixieClockMaster:TO220-5A" H 3450 9850 50  0001 C CIN
F 3 "" H 3150 10100 50  0000 C CNN
	1    3150 10100
	1    0    0    -1  
$EndComp
$Comp
L PrismDDIN18-rescue:D-RESCUE-KickstarterNixie D2
U 1 1 593459B9
P 3800 10450
F 0 "D2" H 3900 10300 70  0000 C CNN
F 1 "1N5819" H 3800 10600 70  0000 C CNN
F 2 "NixieClockMaster:Diode_DO-41_1N4001" H 3800 10450 50  0001 C CNN
F 3 "" H 3800 10450 50  0000 C CNN
	1    3800 10450
	0    1    1    0   
$EndComp
$Comp
L PrismDDIN18-rescue:RCL_L-US6000-XXX-RC L1
U 1 1 593459BA
P 4100 9700
F 0 "L1" V 4050 9650 70  0000 L BNN
F 1 "33uH" V 4250 9500 70  0000 L BNN
F 2 "NixieClockMaster:Inductor-33mH-TH-SMD" H 4090 9490 70  0001 L TNN
F 3 "" H 4100 9700 60  0001 C CNN
	1    4100 9700
	0    -1   -1   0   
$EndComp
$Comp
L Connector_Generic:Conn_01x05 SV2
U 1 1 593459D3
P 13700 4050
F 0 "SV2" H 13700 4400 50  0000 C CNN
F 1 "CONN_FRONT" V 13800 4050 50  0000 C CNN
F 2 "NixieClockMaster:Header_MA05-1" H 13700 4050 50  0001 C CNN
F 3 "" H 13700 4050 50  0000 C CNN
	1    13700 4050
	-1   0    0    1   
$EndComp
Wire Wire Line
	13900 4050 14100 4050
Wire Wire Line
	14700 4300 14700 4400
Wire Wire Line
	14700 4400 14900 4400
Wire Wire Line
	13900 4150 14100 4150
Wire Wire Line
	1250 10700 1900 10700
Wire Wire Line
	4850 10600 4850 10700
Wire Wire Line
	4450 10350 4450 10700
Wire Wire Line
	1050 10400 1250 10400
Wire Wire Line
	1250 10400 1250 10700
Connection ~ 4450 10700
Wire Wire Line
	14400 2900 14600 2900
Wire Wire Line
	1350 10500 1050 10500
Wire Wire Line
	1350 10200 1350 10500
Wire Wire Line
	4850 10200 4850 10300
Wire Wire Line
	14400 3200 14600 3200
Wire Wire Line
	14400 3100 14600 3100
Wire Wire Line
	4850 9550 4850 9700
Wire Wire Line
	14700 3800 14700 3900
Wire Wire Line
	4450 9450 4450 9700
Connection ~ 4850 9700
Connection ~ 4450 9700
Wire Wire Line
	14400 3000 14600 3000
Wire Wire Line
	1050 10600 1150 10600
Wire Wire Line
	1150 10600 1150 11000
Wire Wire Line
	1150 11000 1250 11000
Wire Wire Line
	2400 9700 2400 9850
Wire Wire Line
	2400 9700 2500 9700
Connection ~ 2400 10200
Wire Wire Line
	5100 10700 5100 10800
Wire Wire Line
	4400 9700 4450 9700
Wire Wire Line
	5350 10700 5350 10600
Wire Wire Line
	13900 4250 14100 4250
Wire Wire Line
	1500 10200 1350 10200
Wire Wire Line
	14200 1900 14950 1900
Wire Wire Line
	14200 2000 14200 2100
Wire Wire Line
	14200 2100 14950 2100
Wire Wire Line
	14950 2100 14950 2200
Wire Wire Line
	1800 10200 1900 10200
Wire Wire Line
	2400 10600 2400 10700
Connection ~ 2400 10700
Wire Wire Line
	3150 10400 3150 10500
Connection ~ 3150 10700
Wire Wire Line
	2650 10200 2600 10200
Wire Wire Line
	2600 10200 2600 10500
Wire Wire Line
	2600 10500 3150 10500
Connection ~ 3150 10500
Wire Wire Line
	2650 10000 2400 10000
Connection ~ 2400 10000
Wire Wire Line
	3800 10600 3800 10700
Connection ~ 3800 10700
Wire Wire Line
	3650 10200 3800 10200
Wire Wire Line
	3800 9700 3800 10200
Connection ~ 3800 10200
Wire Wire Line
	4450 9450 3700 9450
Wire Wire Line
	3700 9450 3700 10000
Wire Wire Line
	3700 10000 3650 10000
Wire Wire Line
	13900 3950 14100 3950
Wire Wire Line
	13900 3850 14100 3850
Text Label 14100 3950 0    60   ~ 0
PIR
Text Label 13050 8400 0    60   ~ 0
PIR
Text Notes 10250 6700 0    60   ~ 0
RTC (option)
Wire Notes Line
	12850 2100 12900 2100
Text Notes 14050 1550 0    60   ~ 0
Barrel Jack Input
Wire Notes Line
	12900 2550 12950 2550
Wire Notes Line
	450  9000 11450 9000
Wire Notes Line
	450  9000 450  9050
$Comp
L PrismDDIN18-rescue:TEST_1P W3
U 1 1 593459E3
P 7950 9900
F 0 "W3" H 7950 10170 50  0000 C CNN
F 1 "HV" H 7950 10100 50  0000 C CNN
F 2 "NixieClockMaster:TESTPAD_P1-13" H 8150 9900 50  0001 C CNN
F 3 "" H 8150 9900 50  0000 C CNN
	1    7950 9900
	1    0    0    -1  
$EndComp
Connection ~ 5350 10700
Text Label 10250 8150 0    60   ~ 0
LED_DATA
Text Label 13050 8800 0    60   ~ 0
LED_DATA
Wire Wire Line
	3350 7600 3400 7600
Text Label 3400 7600 0    60   ~ 0
VCC
Wire Wire Line
	4650 7600 4700 7600
Wire Wire Line
	5950 7600 6000 7600
Text Label 4700 7600 0    60   ~ 0
VCC
Text Label 6000 7600 0    60   ~ 0
VCC
Wire Wire Line
	7250 7600 7300 7600
Wire Wire Line
	8550 7600 8600 7600
Text Label 7300 7600 0    60   ~ 0
VCC
Text Label 8600 7600 0    60   ~ 0
VCC
Wire Wire Line
	9850 7600 9900 7600
Text Label 9900 7600 0    60   ~ 0
VCC
$Comp
L power:PWR_FLAG #FLG012
U 1 1 5935CC27
P 2100 9800
F 0 "#FLG012" H 2100 9895 50  0001 C CNN
F 1 "PWR_FLAG" H 2100 9980 50  0000 C CNN
F 2 "" H 2100 9800 50  0000 C CNN
F 3 "" H 2100 9800 50  0000 C CNN
	1    2100 9800
	1    0    0    -1  
$EndComp
Wire Wire Line
	2100 9800 2100 9850
Wire Wire Line
	2100 9850 2400 9850
Connection ~ 2400 9850
$Comp
L power:PWR_FLAG #FLG013
U 1 1 5935FCF8
P 5650 10550
F 0 "#FLG013" H 5650 10645 50  0001 C CNN
F 1 "PWR_FLAG" H 5650 10730 50  0000 C CNN
F 2 "" H 5650 10550 50  0000 C CNN
F 3 "" H 5650 10550 50  0000 C CNN
	1    5650 10550
	1    0    0    -1  
$EndComp
Wire Wire Line
	5650 10700 5650 10550
$Comp
L PrismDDIN18-rescue:CP C16
U 1 1 5934C6FD
P 1900 10450
F 0 "C16" H 1650 10300 70  0000 L BNN
F 1 "220uF 35V" H 1600 10000 70  0000 L BNN
F 2 "NixieClockMaster:C_Radial_D6.3_L11.2_P2.5" H 1890 10240 70  0001 L TNN
F 3 "" H 1900 10450 60  0001 C CNN
F 4 "Value" H 1750 10150 60  0001 C CNN "Fieldname"
F 5 "+" V 1877 10466 50  0000 L BNN "Field5"
	1    1900 10450
	1    0    0    -1  
$EndComp
Wire Wire Line
	1900 10300 1900 10200
Connection ~ 1900 10200
Wire Wire Line
	1900 10600 1900 10700
Connection ~ 1900 10700
Text Label 9800 9950 0    60   ~ 0
VIN
Text Label 7800 9950 2    60   ~ 0
HV
Wire Wire Line
	1050 10300 1150 10300
Wire Wire Line
	1150 10300 1150 9750
Wire Wire Line
	1150 9750 1350 9750
Text Label 1350 9750 0    60   ~ 0
HV
Connection ~ 2600 5050
Text Label 2300 5050 0    60   ~ 0
HV
Wire Notes Line
	6950 9000 6950 11200
Text Notes 7200 9250 0    70   ~ 0
High Voltage Generator
Wire Notes Line
	11450 6600 11450 11200
$Comp
L PrismDDIN18-rescue:HV5622 U3
U 1 1 599741F6
P 6750 5600
F 0 "U3" V 5600 2800 60  0000 C CNN
F 1 "HV5622" V 5600 2350 60  0000 C CNN
F 2 "Sockets:PLCC44" H 6750 5600 60  0001 C CNN
F 3 "" H 6750 5600 60  0001 C CNN
	1    6750 5600
	-1   0    0    1   
$EndComp
$Comp
L PrismDDIN18-rescue:HV5622 U4
U 1 1 59974A30
P 9900 5600
F 0 "U4" V 8750 2800 60  0000 C CNN
F 1 "HV5622" V 8750 2350 60  0000 C CNN
F 2 "Sockets:PLCC44" H 9900 5600 60  0001 C CNN
F 3 "" H 9900 5600 60  0001 C CNN
	1    9900 5600
	-1   0    0    1   
$EndComp
Wire Wire Line
	1550 5550 1800 5550
Wire Wire Line
	1550 5650 1800 5650
Wire Wire Line
	1550 5750 1800 5750
Wire Wire Line
	1550 5850 1800 5850
Wire Wire Line
	1550 5950 1800 5950
Wire Wire Line
	1550 6050 1800 6050
Wire Wire Line
	1550 6150 1800 6150
Wire Wire Line
	1550 6250 1800 6250
Wire Wire Line
	1550 6350 1800 6350
Wire Wire Line
	1550 6450 1800 6450
Text Label 1550 6450 0    60   ~ 0
H10_0
Text Label 1550 5550 0    60   ~ 0
H10_1
Text Label 1550 5650 0    60   ~ 0
H10_2
Text Label 1550 5750 0    60   ~ 0
H10_3
Text Label 1550 5850 0    60   ~ 0
H10_4
Text Label 1550 5950 0    60   ~ 0
H10_5
Text Label 1550 6050 0    60   ~ 0
H10_6
Text Label 1550 6150 0    60   ~ 0
H10_7
Text Label 1550 6250 0    60   ~ 0
H10_8
Text Label 1550 6350 0    60   ~ 0
H10_9
Text Label 6800 900  0    60   ~ 0
H10_1
Wire Wire Line
	6800 900  7050 900 
Wire Wire Line
	7050 1000 6800 1000
Wire Wire Line
	6800 1100 7050 1100
Wire Wire Line
	7050 1200 6800 1200
Wire Wire Line
	7050 1300 6800 1300
Wire Wire Line
	7050 1400 6800 1400
Wire Wire Line
	7050 1500 6800 1500
Wire Wire Line
	7050 1600 6800 1600
Wire Wire Line
	7050 1700 6800 1700
Text Label 6800 1000 0    60   ~ 0
H10_2
Text Label 6800 1100 0    60   ~ 0
H10_3
Text Label 6800 1200 0    60   ~ 0
H10_4
Text Label 6800 1300 0    60   ~ 0
H10_5
Text Label 6800 1400 0    60   ~ 0
H10_6
Text Label 6800 1500 0    60   ~ 0
H10_7
Text Label 6800 1600 0    60   ~ 0
H10_8
Text Label 6800 1700 0    60   ~ 0
H10_9
Text Label 6800 1800 0    60   ~ 0
H10_0
Wire Wire Line
	6800 1800 7050 1800
Wire Wire Line
	7050 1900 6800 1900
Wire Wire Line
	7050 2000 6800 2000
Wire Wire Line
	7050 2100 6800 2100
Wire Wire Line
	7050 2200 6800 2200
Wire Wire Line
	7050 2300 6800 2300
Wire Wire Line
	7050 2400 6800 2400
Wire Wire Line
	7050 2500 6800 2500
Wire Wire Line
	7050 2600 6800 2600
Wire Wire Line
	7050 2700 6800 2700
Text Label 6800 1900 0    60   ~ 0
H1_1
Text Label 6800 2000 0    60   ~ 0
H1_2
Text Label 6800 2100 0    60   ~ 0
H1_3
Text Label 6800 2200 0    60   ~ 0
H1_4
Text Label 6800 2300 0    60   ~ 0
H1_5
Text Label 6800 2400 0    60   ~ 0
H1_6
Text Label 6800 2500 0    60   ~ 0
H1_7
Text Label 6800 2600 0    60   ~ 0
H1_8
Text Label 6800 2700 0    60   ~ 0
H1_9
Text Label 6800 2800 0    60   ~ 0
H1_0
Text Label 6800 2900 0    60   ~ 0
M10_1
Text Label 6800 3000 0    60   ~ 0
M10_2
Text Label 6800 3100 0    60   ~ 0
M10_3
Text Label 6800 3200 0    60   ~ 0
M10_4
Text Label 6800 3300 0    60   ~ 0
M10_5
Text Label 6800 3400 0    60   ~ 0
M10_6
Text Label 6800 3500 0    60   ~ 0
M10_7
Text Label 6800 3600 0    60   ~ 0
M10_8
Text Label 6800 3700 0    60   ~ 0
M10_9
Text Label 6800 3800 0    60   ~ 0
M10_0
Wire Wire Line
	6800 3800 7050 3800
Wire Wire Line
	7050 3700 6800 3700
Wire Wire Line
	6800 3600 7050 3600
Wire Wire Line
	7050 3500 6800 3500
Wire Wire Line
	6800 3400 7050 3400
Wire Wire Line
	7050 3300 6800 3300
Wire Wire Line
	6800 2800 7050 2800
Wire Wire Line
	6800 2900 7050 2900
Wire Wire Line
	6800 3000 7050 3000
Wire Wire Line
	7050 3100 6800 3100
Wire Wire Line
	6800 3200 7050 3200
Wire Wire Line
	2900 5550 3150 5550
Wire Wire Line
	2900 5650 3150 5650
Wire Wire Line
	2900 5750 3150 5750
Wire Wire Line
	2900 5850 3150 5850
Wire Wire Line
	2900 5950 3150 5950
Wire Wire Line
	2900 6050 3150 6050
Wire Wire Line
	2900 6150 3150 6150
Wire Wire Line
	2900 6250 3150 6250
Wire Wire Line
	2900 6350 3150 6350
Wire Wire Line
	2900 6450 3150 6450
Text Label 2900 6450 0    60   ~ 0
H1_0
Text Label 2900 5550 0    60   ~ 0
H1_1
Text Label 2900 5650 0    60   ~ 0
H1_2
Text Label 2900 5750 0    60   ~ 0
H1_3
Text Label 2900 5850 0    60   ~ 0
H1_4
Text Label 2900 5950 0    60   ~ 0
H1_5
Text Label 2900 6050 0    60   ~ 0
H1_6
Text Label 2900 6150 0    60   ~ 0
H1_7
Text Label 2900 6250 0    60   ~ 0
H1_8
Text Label 2900 6350 0    60   ~ 0
H1_9
Wire Wire Line
	4150 5550 4400 5550
Wire Wire Line
	4150 5650 4400 5650
Wire Wire Line
	4150 5750 4400 5750
Wire Wire Line
	4150 5850 4400 5850
Wire Wire Line
	4150 5950 4400 5950
Wire Wire Line
	4150 6050 4400 6050
Wire Wire Line
	4150 6150 4400 6150
Wire Wire Line
	4150 6250 4400 6250
Wire Wire Line
	4150 6350 4400 6350
Wire Wire Line
	4150 6450 4400 6450
Text Label 4150 6450 0    60   ~ 0
M10_0
Text Label 4150 5550 0    60   ~ 0
M10_1
Text Label 4150 5650 0    60   ~ 0
M10_2
Text Label 4150 5750 0    60   ~ 0
M10_3
Text Label 4150 5850 0    60   ~ 0
M10_4
Text Label 4150 5950 0    60   ~ 0
M10_5
Text Label 4150 6050 0    60   ~ 0
M10_6
Text Label 4150 6150 0    60   ~ 0
M10_7
Text Label 4150 6250 0    60   ~ 0
M10_8
Text Label 4150 6350 0    60   ~ 0
M10_9
Text Label 9950 900  0    60   ~ 0
M1_1
Wire Wire Line
	9950 900  10200 900 
Wire Wire Line
	10200 1000 9950 1000
Wire Wire Line
	9950 1100 10200 1100
Wire Wire Line
	10200 1200 9950 1200
Wire Wire Line
	10200 1300 9950 1300
Wire Wire Line
	10200 1400 9950 1400
Wire Wire Line
	10200 1500 9950 1500
Wire Wire Line
	10200 1600 9950 1600
Wire Wire Line
	10200 1700 9950 1700
Text Label 9950 1000 0    60   ~ 0
M1_2
Text Label 9950 1100 0    60   ~ 0
M1_3
Text Label 9950 1200 0    60   ~ 0
M1_4
Text Label 9950 1300 0    60   ~ 0
M1_5
Text Label 9950 1400 0    60   ~ 0
M1_6
Text Label 9950 1500 0    60   ~ 0
M1_7
Text Label 9950 1600 0    60   ~ 0
M1_8
Text Label 9950 1700 0    60   ~ 0
M1_9
Text Label 9950 1800 0    60   ~ 0
M1_0
Wire Wire Line
	9950 1800 10200 1800
Wire Wire Line
	10200 1900 9950 1900
Wire Wire Line
	10200 2000 9950 2000
Wire Wire Line
	10200 2100 9950 2100
Wire Wire Line
	10200 2200 9950 2200
Wire Wire Line
	10200 2300 9950 2300
Wire Wire Line
	10200 2400 9950 2400
Wire Wire Line
	10200 2500 9950 2500
Wire Wire Line
	10200 2600 9950 2600
Wire Wire Line
	10200 2700 9950 2700
Text Label 9950 1900 0    60   ~ 0
S10_1
Text Label 9950 2000 0    60   ~ 0
S10_2
Text Label 9950 2100 0    60   ~ 0
S10_3
Text Label 9950 2200 0    60   ~ 0
S10_4
Text Label 9950 2300 0    60   ~ 0
S10_5
Text Label 9950 2400 0    60   ~ 0
S10_6
Text Label 9950 2500 0    60   ~ 0
S10_7
Text Label 9950 2600 0    60   ~ 0
S10_8
Text Label 9950 2700 0    60   ~ 0
S10_9
Text Label 9950 2800 0    60   ~ 0
S10_0
Text Label 9950 2900 0    60   ~ 0
S1_1
Text Label 9950 3000 0    60   ~ 0
S1_2
Text Label 9950 3100 0    60   ~ 0
S1_3
Text Label 9950 3200 0    60   ~ 0
S1_4
Text Label 9950 3300 0    60   ~ 0
S1_5
Text Label 9950 3400 0    60   ~ 0
S1_6
Text Label 9950 3500 0    60   ~ 0
S1_7
Text Label 9950 3600 0    60   ~ 0
S1_8
Text Label 9950 3700 0    60   ~ 0
S1_9
Text Label 9950 3800 0    60   ~ 0
S1_0
Wire Wire Line
	9950 3800 10200 3800
Wire Wire Line
	10200 3700 9950 3700
Wire Wire Line
	9950 3600 10200 3600
Wire Wire Line
	10200 3500 9950 3500
Wire Wire Line
	9950 3400 10200 3400
Wire Wire Line
	10200 3300 9950 3300
Wire Wire Line
	9950 2800 10200 2800
Wire Wire Line
	9950 2900 10200 2900
Wire Wire Line
	9950 3000 10200 3000
Wire Wire Line
	10200 3100 9950 3100
Wire Wire Line
	9950 3200 10200 3200
Wire Wire Line
	11900 1500 12050 1500
Wire Wire Line
	12050 1500 12050 1650
Wire Wire Line
	11900 2000 12100 2000
Wire Wire Line
	11900 2100 12100 2100
Wire Wire Line
	11900 2200 12100 2200
Wire Wire Line
	11900 2300 12100 2300
Wire Wire Line
	11900 2700 12100 2700
Wire Wire Line
	12100 2600 12100 2700
Wire Wire Line
	12100 2800 11900 2800
Connection ~ 12100 2700
Text Label 12100 2000 0    60   ~ 0
BLANK
Text Label 12100 2100 0    60   ~ 0
LATCH
Text Label 12100 2400 0    60   ~ 0
DATA2
Text Label 12100 2300 0    60   ~ 0
CLK
$Comp
L power:GND #GND015
U 1 1 59990A97
P 12050 1650
F 0 "#GND015" H 11950 1550 70  0001 L BNN
F 1 "GND" H 11950 1450 70  0000 L BNN
F 2 "" H 12050 1650 60  0001 C CNN
F 3 "" H 12050 1650 60  0001 C CNN
	1    12050 1650
	1    0    0    -1  
$EndComp
Text Label 12100 2600 0    60   ~ 0
VSup
Wire Wire Line
	8750 1500 8900 1500
Wire Wire Line
	8900 1500 8900 1650
Wire Wire Line
	8750 2000 8950 2000
Wire Wire Line
	8750 2100 8950 2100
Wire Wire Line
	8750 2200 8950 2200
Wire Wire Line
	8750 2300 8950 2300
Wire Wire Line
	8750 2700 8950 2700
Wire Wire Line
	8950 2600 8950 2700
Wire Wire Line
	8950 2800 8750 2800
Connection ~ 8950 2700
Text Label 8950 2000 0    60   ~ 0
BLANK
Text Label 8950 2100 0    60   ~ 0
LATCH
Text Label 8950 2200 0    60   ~ 0
DATA2
Text Label 8950 2300 0    60   ~ 0
CLK
$Comp
L power:GND #GND016
U 1 1 59990F81
P 8900 1650
F 0 "#GND016" H 8800 1550 70  0001 L BNN
F 1 "GND" H 8800 1450 70  0000 L BNN
F 2 "" H 8900 1650 60  0001 C CNN
F 3 "" H 8900 1650 60  0001 C CNN
	1    8900 1650
	1    0    0    -1  
$EndComp
Text Label 8950 2600 0    60   ~ 0
VSup
Text Label 14950 8400 2    60   ~ 0
DATA1_3V3
Text Label 14950 8500 2    60   ~ 0
CLK_3V3
Text Label 14950 8600 2    60   ~ 0
LATCH_3V3
Text Label 14950 8700 2    60   ~ 0
BLANK_3V3
Wire Wire Line
	6650 5550 6900 5550
Wire Wire Line
	6650 5650 6900 5650
Wire Wire Line
	6650 5750 6900 5750
Wire Wire Line
	6650 5850 6900 5850
Wire Wire Line
	6650 5950 6900 5950
Wire Wire Line
	6650 6050 6900 6050
Wire Wire Line
	6650 6150 6900 6150
Wire Wire Line
	6650 6250 6900 6250
Wire Wire Line
	6650 6350 6900 6350
Wire Wire Line
	6650 6450 6900 6450
Text Label 6650 6450 0    60   ~ 0
S10_0
Text Label 6650 5550 0    60   ~ 0
S10_1
Text Label 6650 5650 0    60   ~ 0
S10_2
Text Label 6650 5750 0    60   ~ 0
S10_3
Text Label 6650 5850 0    60   ~ 0
S10_4
Text Label 6650 5950 0    60   ~ 0
S10_5
Text Label 6650 6050 0    60   ~ 0
S10_6
Text Label 6650 6150 0    60   ~ 0
S10_7
Text Label 6650 6250 0    60   ~ 0
S10_8
Text Label 6650 6350 0    60   ~ 0
S10_9
Wire Wire Line
	5400 5550 5650 5550
Wire Wire Line
	5400 5650 5650 5650
Wire Wire Line
	5400 5750 5650 5750
Wire Wire Line
	5400 5850 5650 5850
Wire Wire Line
	5400 5950 5650 5950
Wire Wire Line
	5400 6050 5650 6050
Wire Wire Line
	5400 6150 5650 6150
Wire Wire Line
	5400 6250 5650 6250
Wire Wire Line
	5400 6350 5650 6350
Wire Wire Line
	5400 6450 5650 6450
Text Label 5400 6450 0    60   ~ 0
M1_0
Text Label 5400 5550 0    60   ~ 0
M1_1
Text Label 5400 5650 0    60   ~ 0
M1_2
Text Label 5400 5750 0    60   ~ 0
M1_3
Text Label 5400 5850 0    60   ~ 0
M1_4
Text Label 5400 5950 0    60   ~ 0
M1_5
Text Label 5400 6050 0    60   ~ 0
M1_6
Text Label 5400 6150 0    60   ~ 0
M1_7
Text Label 5400 6250 0    60   ~ 0
M1_8
Text Label 5400 6350 0    60   ~ 0
M1_9
Wire Wire Line
	7950 5550 8200 5550
Wire Wire Line
	7950 5650 8200 5650
Wire Wire Line
	7950 5750 8200 5750
Wire Wire Line
	7950 5850 8200 5850
Wire Wire Line
	7950 5950 8200 5950
Wire Wire Line
	7950 6050 8200 6050
Wire Wire Line
	7950 6150 8200 6150
Wire Wire Line
	7950 6250 8200 6250
Wire Wire Line
	7950 6350 8200 6350
Wire Wire Line
	7950 6450 8200 6450
Text Label 7950 6450 0    60   ~ 0
S1_0
Text Label 7950 5550 0    60   ~ 0
S1_1
Text Label 7950 5650 0    60   ~ 0
S1_2
Text Label 7950 5750 0    60   ~ 0
S1_3
Text Label 7950 5850 0    60   ~ 0
S1_4
Text Label 7950 5950 0    60   ~ 0
S1_5
Text Label 7950 6050 0    60   ~ 0
S1_6
Text Label 7950 6150 0    60   ~ 0
S1_7
Text Label 7950 6250 0    60   ~ 0
S1_8
Text Label 7950 6350 0    60   ~ 0
S1_9
NoConn ~ 8750 2400
$Comp
L PrismDDIN18-rescue:LED D8
U 1 1 5ADCD452
P 9400 3650
F 0 "D8" H 9400 3750 50  0000 C CNN
F 1 "LED" H 9400 3550 50  0000 C CNN
F 2 "NixieClockMaster:LED-5MM-Centred" H 9400 3650 50  0001 C CNN
F 3 "" H 9400 3650 50  0001 C CNN
	1    9400 3650
	0    -1   -1   0   
$EndComp
$Comp
L PrismDDIN18-rescue:LED D7
U 1 1 5ADCD92D
P 9650 3650
F 0 "D7" H 9650 3750 50  0000 C CNN
F 1 "LED" H 9650 3550 50  0000 C CNN
F 2 "NixieClockMaster:LED-5MM-Centred" H 9650 3650 50  0001 C CNN
F 3 "" H 9650 3650 50  0001 C CNN
	1    9650 3650
	0    -1   -1   0   
$EndComp
$Comp
L PrismDDIN18-rescue:R R21
U 1 1 5ADCE6C6
P 9400 3250
F 0 "R21" V 9480 3250 50  0000 C CNN
F 1 "10k" V 9400 3250 50  0000 C CNN
F 2 "NixieClockMaster:R-0207_2V" V 9330 3250 50  0001 C CNN
F 3 "" H 9400 3250 50  0000 C CNN
	1    9400 3250
	-1   0    0    1   
$EndComp
$Comp
L PrismDDIN18-rescue:LED D6
U 1 1 5ADCED9D
P 6250 3650
F 0 "D6" H 6250 3750 50  0000 C CNN
F 1 "LED" H 6250 3550 50  0000 C CNN
F 2 "NixieClockMaster:LED-5MM-Centred" H 6250 3650 50  0001 C CNN
F 3 "" H 6250 3650 50  0001 C CNN
	1    6250 3650
	0    -1   -1   0   
$EndComp
$Comp
L PrismDDIN18-rescue:LED D5
U 1 1 5ADCEDA3
P 6500 3650
F 0 "D5" H 6500 3750 50  0000 C CNN
F 1 "LED" H 6500 3550 50  0000 C CNN
F 2 "NixieClockMaster:LED-5MM-Centred" H 6500 3650 50  0001 C CNN
F 3 "" H 6500 3650 50  0001 C CNN
	1    6500 3650
	0    -1   -1   0   
$EndComp
$Comp
L PrismDDIN18-rescue:R R18
U 1 1 5ADCF7B9
P 6250 3250
F 0 "R18" V 6330 3250 50  0000 C CNN
F 1 "10k" V 6250 3250 50  0000 C CNN
F 2 "NixieClockMaster:R_Short_P7.62mm_Horizontal" V 6180 3250 50  0001 C CNN
F 3 "" H 6250 3250 50  0000 C CNN
	1    6250 3250
	-1   0    0    1   
$EndComp
$Comp
L PrismDDIN18-rescue:R R20
U 1 1 5ADCFE86
P 9650 3250
F 0 "R20" V 9730 3250 50  0000 C CNN
F 1 "10k" V 9650 3250 50  0000 C CNN
F 2 "NixieClockMaster:R-0207_2V" V 9580 3250 50  0001 C CNN
F 3 "" H 9650 3250 50  0000 C CNN
	1    9650 3250
	-1   0    0    1   
$EndComp
$Comp
L PrismDDIN18-rescue:R R19
U 1 1 5ADD0912
P 6500 3250
F 0 "R19" V 6580 3250 50  0000 C CNN
F 1 "10k" V 6500 3250 50  0000 C CNN
F 2 "NixieClockMaster:R_Short_P7.62mm_Horizontal" V 6430 3250 50  0001 C CNN
F 3 "" H 6500 3250 50  0000 C CNN
	1    6500 3250
	-1   0    0    1   
$EndComp
Wire Wire Line
	7950 9900 7950 9950
Connection ~ 7950 9950
Wire Wire Line
	3900 5050 5150 5050
Wire Wire Line
	5150 5050 6400 5050
Wire Wire Line
	6400 5050 7650 5050
Wire Wire Line
	7650 5050 8950 5050
Wire Wire Line
	4450 10700 4850 10700
Wire Wire Line
	4850 9700 4850 9800
Wire Wire Line
	4450 9700 4450 10050
Wire Wire Line
	4450 9700 4850 9700
Wire Wire Line
	2400 10200 2400 10300
Wire Wire Line
	5100 10700 5350 10700
Wire Wire Line
	2400 10700 3150 10700
Wire Wire Line
	3150 10700 3800 10700
Wire Wire Line
	3150 10500 3150 10700
Wire Wire Line
	2400 10000 2400 10200
Wire Wire Line
	3800 10200 3800 10300
Wire Wire Line
	5350 10700 5650 10700
Wire Wire Line
	2400 9850 2400 10000
Wire Wire Line
	1900 10200 2400 10200
Wire Wire Line
	1900 10700 2400 10700
Wire Wire Line
	7800 9950 7950 9950
Wire Wire Line
	2600 5050 2600 5450
Wire Wire Line
	12100 2700 12100 2800
Wire Wire Line
	8950 2700 8950 2800
Wire Wire Line
	8950 5050 8950 5450
Wire Wire Line
	7950 9950 8200 9950
Wire Notes Line
	11450 6600 16050 6600
Connection ~ 14200 2100
Text Label 6250 2900 0    50   ~ 0
HV
Wire Wire Line
	2600 5050 2300 5050
Wire Wire Line
	6500 3400 6500 3500
Wire Wire Line
	6500 3900 7050 3900
Wire Wire Line
	6250 3800 6250 4000
Wire Wire Line
	6500 3800 6500 3900
Wire Wire Line
	6250 3100 6250 3000
Wire Wire Line
	6250 3000 6500 3000
Wire Wire Line
	6500 3000 6500 3100
Wire Wire Line
	6250 3000 6250 2900
Connection ~ 6250 3000
Wire Wire Line
	6250 4000 7050 4000
Wire Wire Line
	6250 3400 6250 3500
Wire Wire Line
	9650 3800 9650 3900
Wire Wire Line
	9650 3900 10200 3900
Wire Wire Line
	9400 4000 9400 3800
Wire Wire Line
	9400 4000 10200 4000
Wire Wire Line
	9400 3400 9400 3500
Wire Wire Line
	9650 3400 9650 3500
Wire Wire Line
	9400 3100 9400 3000
Wire Wire Line
	9400 3000 9650 3000
Wire Wire Line
	9650 3000 9650 3100
Wire Wire Line
	9400 3000 9400 2900
Connection ~ 9400 3000
Text Label 9400 2900 0    50   ~ 0
HV
Text Notes 1950 7350 0    70   ~ 0
NeoPixel back lights
Text Notes 1300 5050 0    70   ~ 0
Tubes
Wire Notes Line
	500  7000 11450 7000
Wire Notes Line
	500  4700 12600 4700
Wire Notes Line
	12600 500  12600 6600
Wire Notes Line
	5700 4700 5700 500 
Text Notes 6050 4450 0    60   ~ 0
Display drivers
Text Notes 13950 2600 0    60   ~ 0
I2C interface (3V3)
Text Notes 13600 3650 0    60   ~ 0
Front panel
Text Label 14700 3800 0    65   ~ 0
VCC
Wire Wire Line
	3800 10700 4450 10700
Wire Wire Line
	5100 10700 4850 10700
Connection ~ 5100 10700
Connection ~ 4850 10700
Wire Wire Line
	4850 9700 5150 9700
$Comp
L Device:Crystal_Small Y1
U 1 1 5C33C105
P 9800 5900
F 0 "Y1" V 9800 6000 50  0000 L CNN
F 1 "32.768kHz" V 10000 5700 50  0000 L CNN
F 2 "NixieClockMaster:Crystal_DS10_d1.0mm_l4.3mm_Horizontal" H 9800 5900 50  0001 C CNN
F 3 "~" H 9800 5900 50  0001 C CNN
	1    9800 5900
	0    1    1    0   
$EndComp
Wire Wire Line
	10050 5850 10050 5750
Wire Wire Line
	10050 5750 9800 5750
Wire Wire Line
	9800 5750 9800 5800
Wire Wire Line
	10150 5950 10050 5950
Wire Wire Line
	10050 5950 10050 6050
Wire Wire Line
	10050 6050 9800 6050
Wire Wire Line
	9800 6050 9800 6000
Text Label 9600 5400 0    50   ~ 0
SCL
Text Label 9600 5500 0    50   ~ 0
SDA
$Comp
L Device:C C21
U 1 1 5C4702AC
P 11300 5550
F 0 "C21" H 11415 5596 50  0000 L CNN
F 1 "100nF" H 11415 5505 50  0000 L CNN
F 2 "NixieClockMaster:C025-024X044" H 11338 5400 50  0001 C CNN
F 3 "~" H 11300 5550 50  0001 C CNN
	1    11300 5550
	1    0    0    -1  
$EndComp
Wire Wire Line
	11300 6200 10650 6200
Wire Wire Line
	11300 5400 11300 5000
Text Label 10350 5000 0    50   ~ 0
VCC
$Comp
L power:GND #PWR07
U 1 1 5C5F7C27
P 10650 6300
F 0 "#PWR07" H 10650 6050 50  0001 C CNN
F 1 "GND" H 10650 6150 50  0000 C CNN
F 2 "" H 10650 6300 50  0000 C CNN
F 3 "" H 10650 6300 50  0000 C CNN
	1    10650 6300
	1    0    0    -1  
$EndComp
Wire Wire Line
	10650 6200 10650 6300
$Comp
L Device:Battery_Cell BT1
U 1 1 5C647529
P 11800 5650
F 0 "BT1" H 11918 5746 50  0000 L CNN
F 1 "Battery_Cell" H 11918 5655 50  0000 L CNN
F 2 "NixieClockMaster:CR1220-CoinCell" V 11800 5710 50  0001 C CNN
F 3 "~" V 11800 5710 50  0001 C CNN
	1    11800 5650
	1    0    0    -1  
$EndComp
Wire Wire Line
	11300 6200 11800 6200
Wire Wire Line
	11800 5450 11800 5100
Wire Wire Line
	11800 5100 10650 5100
$Comp
L power:PWR_FLAG #FLG0101
U 1 1 5C6E83E9
P 11800 5000
F 0 "#FLG0101" H 11800 5075 50  0001 C CNN
F 1 "PWR_FLAG" H 11800 5174 50  0000 C CNN
F 2 "" H 11800 5000 50  0001 C CNN
F 3 "~" H 11800 5000 50  0001 C CNN
	1    11800 5000
	1    0    0    -1  
$EndComp
Wire Wire Line
	11800 5000 11800 5100
Connection ~ 11800 5100
Wire Notes Line
	9400 4700 9400 7000
$Comp
L PrismDDIN18-rescue:WeMos_mini-NixieClockMaster U1
U 1 1 5C458A48
P 13900 8550
F 0 "U1" H 13900 9187 60  0000 C CNN
F 1 "WeMos_mini" H 13900 9081 60  0000 C CNN
F 2 "NixieClockMaster:WeMos_D1_mini_board_flipped" H 14450 7850 60  0001 C CNN
F 3 "" H 14450 7850 60  0000 C CNN
	1    13900 8550
	1    0    0    -1  
$EndComp
$Comp
L Device:C C7
U 1 1 5C458BB4
P 12350 8050
F 0 "C7" H 12465 8096 50  0000 L CNN
F 1 "100nF" H 12400 7950 50  0000 L CNN
F 2 "NixieClockMaster:C025-024X044" H 12388 7900 50  0001 C CNN
F 3 "~" H 12350 8050 50  0001 C CNN
	1    12350 8050
	1    0    0    -1  
$EndComp
$Comp
L Device:CP C8
U 1 1 5C458D04
P 12750 8050
F 0 "C8" H 12868 8096 50  0000 L CNN
F 1 "220uF" H 12800 7950 50  0000 L CNN
F 2 "NixieClockMaster:C_Radial_D6.3_L11.2_P2.5" H 12788 7900 50  0001 C CNN
F 3 "~" H 12750 8050 50  0001 C CNN
	1    12750 8050
	1    0    0    -1  
$EndComp
Wire Wire Line
	13100 7800 12750 7800
Wire Wire Line
	12350 7800 12350 7900
Wire Wire Line
	12750 7900 12750 7800
Connection ~ 12750 7800
Wire Wire Line
	12750 7800 12350 7800
Wire Wire Line
	12350 8200 12350 8300
Wire Wire Line
	12350 8300 12750 8300
Wire Wire Line
	12750 8200 12750 8300
Connection ~ 12750 8300
Wire Wire Line
	12750 7800 12750 7550
Wire Wire Line
	12750 7550 12950 7550
Text Label 12950 7550 0    50   ~ 0
VCC
Wire Wire Line
	12750 8300 13400 8300
Wire Wire Line
	13400 8200 13100 8200
Wire Wire Line
	13100 7800 13100 8200
Wire Wire Line
	13400 8400 13050 8400
Wire Wire Line
	13400 8500 13050 8500
Wire Wire Line
	13400 8600 13050 8600
Wire Wire Line
	13400 8700 13050 8700
Wire Wire Line
	13400 8800 13050 8800
Text Label 14950 8200 2    50   ~ 0
3V3
NoConn ~ 14400 8900
NoConn ~ 13400 8900
Wire Wire Line
	11900 2400 12100 2400
Text Label 12100 2200 0    50   ~ 0
DATA1
NoConn ~ 14400 8300
$Comp
L power:GND #PWR0101
U 1 1 5C9FB548
P 12750 8450
F 0 "#PWR0101" H 12750 8200 50  0001 C CNN
F 1 "GND" H 12750 8300 50  0000 C CNN
F 2 "" H 12750 8450 50  0000 C CNN
F 3 "" H 12750 8450 50  0000 C CNN
	1    12750 8450
	1    0    0    -1  
$EndComp
Wire Wire Line
	12750 8450 12750 8300
Wire Wire Line
	14400 8200 14650 8200
Wire Wire Line
	14400 8400 14950 8400
Wire Wire Line
	14400 8500 14950 8500
Wire Wire Line
	14400 8600 14950 8600
Wire Wire Line
	14400 8700 14950 8700
Wire Wire Line
	14400 8800 14950 8800
$Comp
L Connector_Generic:Conn_01x03 J1
U 1 1 5CB78960
P 14550 5300
F 0 "J1" H 14470 4975 50  0000 C CNN
F 1 "Conn_01x03" H 14470 5066 50  0000 C CNN
F 2 "NixieClockMaster:Header_MA03-1_Small" H 14550 5300 50  0001 C CNN
F 3 "~" H 14550 5300 50  0001 C CNN
	1    14550 5300
	-1   0    0    1   
$EndComp
Wire Wire Line
	14750 5400 15150 5400
Wire Wire Line
	14750 5300 15150 5300
Wire Wire Line
	14750 5200 15150 5200
Text Label 15150 5200 2    50   ~ 0
VCC
Text Label 15150 5300 2    50   ~ 0
GND
Text Label 15150 5400 2    50   ~ 0
LED_DATA
Text Notes 14350 4850 0    60   ~ 0
NeoPixel Test Point
$Comp
L Transistor_FET:2N7000 Q2
U 1 1 5CCF4DB0
P 3100 1350
F 0 "Q2" V 3050 1500 50  0000 C CNN
F 1 "2N7000" V 3350 1350 50  0000 C CNN
F 2 "NixieClockMaster:TO-92_inline_2N7000" H 3300 1275 50  0001 L CIN
F 3 "https://www.fairchildsemi.com/datasheets/2N/2N7000.pdf" H 3100 1350 50  0001 L CNN
	1    3100 1350
	0    1    1    0   
$EndComp
$Comp
L Device:R R10
U 1 1 5CD283FB
P 2750 1200
F 0 "R10" H 2820 1246 50  0000 L CNN
F 1 "10k" H 2820 1155 50  0000 L CNN
F 2 "NixieClockMaster:R-0207_2V" V 2680 1200 50  0001 C CNN
F 3 "~" H 2750 1200 50  0001 C CNN
	1    2750 1200
	1    0    0    -1  
$EndComp
$Comp
L Device:R R11
U 1 1 5CD28503
P 3450 1200
F 0 "R11" H 3520 1246 50  0000 L CNN
F 1 "10k" H 3520 1155 50  0000 L CNN
F 2 "NixieClockMaster:R-0207_2V" V 3380 1200 50  0001 C CNN
F 3 "~" H 3450 1200 50  0001 C CNN
	1    3450 1200
	1    0    0    -1  
$EndComp
Wire Wire Line
	2750 850  2750 1000
Wire Wire Line
	2750 1000 3100 1000
Wire Wire Line
	3100 1000 3100 1150
Connection ~ 2750 1000
Wire Wire Line
	2750 1000 2750 1050
Wire Wire Line
	2900 1450 2750 1450
Wire Wire Line
	2750 1450 2750 1350
Connection ~ 2750 1450
Wire Wire Line
	3300 1450 3450 1450
Wire Wire Line
	3450 1450 3450 1350
Wire Wire Line
	3450 1450 3700 1450
Connection ~ 3450 1450
Wire Wire Line
	3450 1050 3450 850 
Wire Wire Line
	3450 850  3600 850 
Text Label 3600 850  0    50   ~ 0
VSup
Text Label 2250 850  0    50   ~ 0
3V3
Text Label 2250 1450 0    50   ~ 0
DATA1_3V3
Wire Wire Line
	2250 1450 2750 1450
Wire Wire Line
	2250 850  2750 850 
Text Label 3700 1450 2    50   ~ 0
DATA1
$Comp
L Transistor_FET:2N7000 Q3
U 1 1 5CFB6A40
P 3150 2250
F 0 "Q3" V 3100 2400 50  0000 C CNN
F 1 "2N7000" V 3400 2250 50  0000 C CNN
F 2 "NixieClockMaster:TO-92_inline_2N7000" H 3350 2175 50  0001 L CIN
F 3 "https://www.fairchildsemi.com/datasheets/2N/2N7000.pdf" H 3150 2250 50  0001 L CNN
	1    3150 2250
	0    1    1    0   
$EndComp
$Comp
L Device:R R12
U 1 1 5CFB6A46
P 2800 2100
F 0 "R12" H 2870 2146 50  0000 L CNN
F 1 "10k" H 2870 2055 50  0000 L CNN
F 2 "NixieClockMaster:R-0207_2V" V 2730 2100 50  0001 C CNN
F 3 "~" H 2800 2100 50  0001 C CNN
	1    2800 2100
	1    0    0    -1  
$EndComp
$Comp
L Device:R R13
U 1 1 5CFB6A4C
P 3500 2100
F 0 "R13" H 3570 2146 50  0000 L CNN
F 1 "10k" H 3570 2055 50  0000 L CNN
F 2 "NixieClockMaster:R-0207_2V" V 3430 2100 50  0001 C CNN
F 3 "~" H 3500 2100 50  0001 C CNN
	1    3500 2100
	1    0    0    -1  
$EndComp
Wire Wire Line
	2800 1750 2800 1900
Wire Wire Line
	2800 1900 3150 1900
Wire Wire Line
	3150 1900 3150 2050
Connection ~ 2800 1900
Wire Wire Line
	2800 1900 2800 1950
Wire Wire Line
	2950 2350 2800 2350
Wire Wire Line
	2800 2350 2800 2250
Connection ~ 2800 2350
Wire Wire Line
	3350 2350 3500 2350
Wire Wire Line
	3500 2350 3500 2250
Wire Wire Line
	3500 2350 3750 2350
Connection ~ 3500 2350
Wire Wire Line
	3500 1950 3500 1750
Wire Wire Line
	3500 1750 3650 1750
Text Label 3650 1750 0    50   ~ 0
VSup
Text Label 2300 1750 0    50   ~ 0
3V3
Text Label 2300 2350 0    50   ~ 0
BLANK_3V3
Wire Wire Line
	2300 2350 2800 2350
Wire Wire Line
	2300 1750 2800 1750
Text Label 3750 2350 2    50   ~ 0
BLANK
$Comp
L Transistor_FET:2N7000 Q4
U 1 1 5CFF2A8C
P 3150 3200
F 0 "Q4" V 3100 3350 50  0000 C CNN
F 1 "2N7000" V 3400 3200 50  0000 C CNN
F 2 "NixieClockMaster:TO-92_inline_2N7000" H 3350 3125 50  0001 L CIN
F 3 "https://www.fairchildsemi.com/datasheets/2N/2N7000.pdf" H 3150 3200 50  0001 L CNN
	1    3150 3200
	0    1    1    0   
$EndComp
$Comp
L Device:R R7
U 1 1 5CFF2A92
P 2800 3050
F 0 "R7" H 2870 3096 50  0000 L CNN
F 1 "10k" H 2870 3005 50  0000 L CNN
F 2 "NixieClockMaster:R-0207_2V" V 2730 3050 50  0001 C CNN
F 3 "~" H 2800 3050 50  0001 C CNN
	1    2800 3050
	1    0    0    -1  
$EndComp
$Comp
L Device:R R23
U 1 1 5CFF2A98
P 3500 3050
F 0 "R23" H 3570 3096 50  0000 L CNN
F 1 "10k" H 3570 3005 50  0000 L CNN
F 2 "NixieClockMaster:R-0207_2V" V 3430 3050 50  0001 C CNN
F 3 "~" H 3500 3050 50  0001 C CNN
	1    3500 3050
	1    0    0    -1  
$EndComp
Wire Wire Line
	2800 2700 2800 2850
Wire Wire Line
	2800 2850 3150 2850
Wire Wire Line
	3150 2850 3150 3000
Connection ~ 2800 2850
Wire Wire Line
	2800 2850 2800 2900
Wire Wire Line
	2950 3300 2800 3300
Wire Wire Line
	2800 3300 2800 3200
Connection ~ 2800 3300
Wire Wire Line
	3350 3300 3500 3300
Wire Wire Line
	3500 3300 3500 3200
Wire Wire Line
	3500 3300 3750 3300
Connection ~ 3500 3300
Wire Wire Line
	3500 2900 3500 2700
Wire Wire Line
	3500 2700 3650 2700
Text Label 3650 2700 0    50   ~ 0
VSup
Text Label 2300 2700 0    50   ~ 0
3V3
Text Label 2300 3300 0    50   ~ 0
CLK_3V3
Wire Wire Line
	2300 3300 2800 3300
Wire Wire Line
	2300 2700 2800 2700
Text Label 3750 3300 2    50   ~ 0
CLK
$Comp
L Transistor_FET:2N7000 Q5
U 1 1 5D072361
P 3200 4150
F 0 "Q5" V 3150 4300 50  0000 C CNN
F 1 "2N7000" V 3450 4150 50  0000 C CNN
F 2 "NixieClockMaster:TO-92_inline_2N7000" H 3400 4075 50  0001 L CIN
F 3 "https://www.fairchildsemi.com/datasheets/2N/2N7000.pdf" H 3200 4150 50  0001 L CNN
	1    3200 4150
	0    1    1    0   
$EndComp
$Comp
L Device:R R22
U 1 1 5D072367
P 2850 4000
F 0 "R22" H 2920 4046 50  0000 L CNN
F 1 "10k" H 2920 3955 50  0000 L CNN
F 2 "NixieClockMaster:R-0207_2V" V 2780 4000 50  0001 C CNN
F 3 "~" H 2850 4000 50  0001 C CNN
	1    2850 4000
	1    0    0    -1  
$EndComp
$Comp
L Device:R R24
U 1 1 5D07236D
P 3550 4000
F 0 "R24" H 3620 4046 50  0000 L CNN
F 1 "10k" H 3620 3955 50  0000 L CNN
F 2 "NixieClockMaster:R-0207_2V" V 3480 4000 50  0001 C CNN
F 3 "~" H 3550 4000 50  0001 C CNN
	1    3550 4000
	1    0    0    -1  
$EndComp
Wire Wire Line
	2850 3650 2850 3800
Wire Wire Line
	2850 3800 3200 3800
Wire Wire Line
	3200 3800 3200 3950
Connection ~ 2850 3800
Wire Wire Line
	2850 3800 2850 3850
Wire Wire Line
	3000 4250 2850 4250
Wire Wire Line
	2850 4250 2850 4150
Connection ~ 2850 4250
Wire Wire Line
	3400 4250 3550 4250
Wire Wire Line
	3550 4250 3550 4150
Wire Wire Line
	3550 4250 3800 4250
Connection ~ 3550 4250
Wire Wire Line
	3550 3850 3550 3650
Wire Wire Line
	3550 3650 3700 3650
Text Label 3700 3650 0    50   ~ 0
VSup
Text Label 2350 3650 0    50   ~ 0
3V3
Text Label 2350 4250 0    50   ~ 0
LATCH_3V3
Wire Wire Line
	2350 4250 2850 4250
Wire Wire Line
	2350 3650 2850 3650
Text Label 3800 4250 2    50   ~ 0
LATCH
Text Notes 900  950  0    60   ~ 0
Level shifters
$Comp
L power:PWR_FLAG #FLG0102
U 1 1 5D10371C
P 5150 9650
F 0 "#FLG0102" H 5150 9745 50  0001 C CNN
F 1 "PWR_FLAG" H 5150 9830 50  0000 C CNN
F 2 "" H 5150 9650 50  0000 C CNN
F 3 "" H 5150 9650 50  0000 C CNN
	1    5150 9650
	1    0    0    -1  
$EndComp
Wire Wire Line
	5150 9650 5150 9700
Connection ~ 5150 9700
Wire Wire Line
	5150 9700 5300 9700
Text Notes 13500 7400 0    60   ~ 0
Controller
$Comp
L PrismDDIN18-rescue:TEST_1P W4
U 1 1 5C15B1F7
P 14650 8100
F 0 "W4" H 14650 8370 50  0000 C CNN
F 1 "3V3" H 14650 8300 50  0000 C CNN
F 2 "NixieClockMaster:TESTPAD_P1-13" H 14850 8100 50  0001 C CNN
F 3 "" H 14850 8100 50  0000 C CNN
	1    14650 8100
	1    0    0    -1  
$EndComp
Wire Wire Line
	14650 8100 14650 8200
Connection ~ 14650 8200
Wire Wire Line
	14650 8200 14950 8200
$Comp
L PrismDDIN18-rescue:R R25
U 1 1 5C2469EC
P 9800 5200
F 0 "R25" V 9880 5200 50  0000 C CNN
F 1 "10k" V 9800 5200 50  0000 C CNN
F 2 "NixieClockMaster:R-0207_2V" V 9730 5200 50  0001 C CNN
F 3 "" H 9800 5200 50  0000 C CNN
	1    9800 5200
	1    0    0    -1  
$EndComp
$Comp
L PrismDDIN18-rescue:R R26
U 1 1 5C246B2E
P 10000 5200
F 0 "R26" V 10080 5200 50  0000 C CNN
F 1 "10k" V 10000 5200 50  0000 C CNN
F 2 "NixieClockMaster:R-0207_2V" V 9930 5200 50  0001 C CNN
F 3 "" H 10000 5200 50  0000 C CNN
	1    10000 5200
	1    0    0    -1  
$EndComp
Wire Wire Line
	9600 5400 10000 5400
Wire Wire Line
	9600 5500 9800 5500
Wire Wire Line
	9800 5350 9800 5500
Connection ~ 9800 5500
Wire Wire Line
	10000 5350 10000 5400
Connection ~ 10000 5400
Wire Wire Line
	10000 5400 10150 5400
Wire Wire Line
	10000 5000 10000 5050
Wire Wire Line
	10000 5000 10550 5000
Wire Wire Line
	10000 5000 9800 5000
Wire Wire Line
	9800 5000 9800 5050
Connection ~ 10000 5000
NoConn ~ 2450 7850
$Comp
L PrismDDIN18-rescue:SK6812MINI-LED1 LED6
U 1 1 5CFB5CAB
P 9350 8000
F 0 "LED6" H 9350 8467 50  0000 C CNN
F 1 "SK6812MINI" H 9350 8376 50  0000 C CNN
F 2 "LED_SMD:LED_SK6812MINI_PLCC4_3.5x3.5mm_P1.75mm" H 9150 7600 50  0001 L TNN
F 3 "" H 9550 7725 50  0001 L TNN
	1    9350 8000
	1    0    0    -1  
$EndComp
Wire Wire Line
	9850 7600 9850 7850
Wire Wire Line
	9750 8150 10250 8150
Wire Wire Line
	9750 7850 9850 7850
Wire Wire Line
	8550 7600 8550 7850
$Comp
L PrismDDIN18-rescue:SK6812MINI-LED1 LED5
U 1 1 5D862977
P 8050 8000
F 0 "LED5" H 8050 8467 50  0000 C CNN
F 1 "SK6812MINI" H 8050 8376 50  0000 C CNN
F 2 "LED_SMD:LED_SK6812MINI_PLCC4_3.5x3.5mm_P1.75mm" H 7850 7600 50  0001 L TNN
F 3 "" H 8250 7725 50  0001 L TNN
	1    8050 8000
	1    0    0    -1  
$EndComp
Wire Wire Line
	8450 7850 8550 7850
$Comp
L PrismDDIN18-rescue:SK6812MINI-LED1 LED4
U 1 1 5DDEF895
P 6750 8000
F 0 "LED4" H 6750 8467 50  0000 C CNN
F 1 "SK6812MINI" H 6750 8376 50  0000 C CNN
F 2 "LED_SMD:LED_SK6812MINI_PLCC4_3.5x3.5mm_P1.75mm" H 6550 7600 50  0001 L TNN
F 3 "" H 6950 7725 50  0001 L TNN
	1    6750 8000
	1    0    0    -1  
$EndComp
Wire Wire Line
	7150 8150 7550 8150
Wire Wire Line
	7550 8150 7550 7850
Wire Wire Line
	7150 7850 7250 7850
Wire Wire Line
	7250 7600 7250 7850
Wire Wire Line
	5950 7600 5950 7850
Wire Wire Line
	6250 8150 6250 7850
Wire Wire Line
	6250 7850 6350 7850
$Comp
L PrismDDIN18-rescue:SK6812MINI-LED1 LED3
U 1 1 5E2FB4E8
P 5450 8000
F 0 "LED3" H 5450 8467 50  0000 C CNN
F 1 "SK6812MINI" H 5450 8376 50  0000 C CNN
F 2 "LED_SMD:LED_SK6812MINI_PLCC4_3.5x3.5mm_P1.75mm" H 5250 7600 50  0001 L TNN
F 3 "" H 5650 7725 50  0001 L TNN
	1    5450 8000
	1    0    0    -1  
$EndComp
Wire Wire Line
	6250 8150 5850 8150
Wire Wire Line
	5850 7850 5950 7850
Wire Wire Line
	4650 7600 4650 7850
$Comp
L PrismDDIN18-rescue:SK6812MINI-LED1 LED2
U 1 1 5E6A2269
P 4150 8000
F 0 "LED2" H 4150 8467 50  0000 C CNN
F 1 "SK6812MINI" H 4150 8376 50  0000 C CNN
F 2 "LED_SMD:LED_SK6812MINI_PLCC4_3.5x3.5mm_P1.75mm" H 3950 7600 50  0001 L TNN
F 3 "" H 4350 7725 50  0001 L TNN
	1    4150 8000
	1    0    0    -1  
$EndComp
Wire Wire Line
	5050 7850 4950 7850
Wire Wire Line
	4950 7850 4950 8150
Wire Wire Line
	4950 8150 4550 8150
Wire Wire Line
	4550 7850 4650 7850
Wire Wire Line
	8950 7850 8850 7850
Wire Wire Line
	8850 7850 8850 8150
Wire Wire Line
	8450 8150 8850 8150
Wire Wire Line
	3350 7600 3350 7850
$Comp
L PrismDDIN18-rescue:SK6812MINI-LED1 LED1
U 1 1 5EA5C4F8
P 2850 8000
F 0 "LED1" H 2850 8467 50  0000 C CNN
F 1 "SK6812MINI" H 2850 8376 50  0000 C CNN
F 2 "LED_SMD:LED_SK6812MINI_PLCC4_3.5x3.5mm_P1.75mm" H 2650 7600 50  0001 L TNN
F 3 "" H 3050 7725 50  0001 L TNN
	1    2850 8000
	1    0    0    -1  
$EndComp
Wire Wire Line
	3750 7850 3650 7850
Wire Wire Line
	3650 7850 3650 8150
Wire Wire Line
	3250 7850 3350 7850
Wire Wire Line
	3250 8150 3650 8150
Wire Wire Line
	9800 5500 10150 5500
Wire Wire Line
	10050 5850 10150 5850
Wire Wire Line
	10550 5000 10550 5200
Wire Wire Line
	10650 5100 10650 5200
Wire Wire Line
	11300 5700 11300 6200
Connection ~ 11300 6200
Wire Wire Line
	11800 5750 11800 6200
$Comp
L PrismDDIN18-rescue:DS1307+DIL8-Timer_RTC U5
U 1 1 5DA83D67
P 10650 5700
F 0 "U5" H 10250 6150 50  0000 L CNN
F 1 "DS1307+DIL8" H 10700 6150 50  0000 L CNN
F 2 "NixieClockMaster:DS1307_DIL8" H 10650 5200 50  0001 C CNN
F 3 "https://datasheets.maximintegrated.com/en/ds/DS1307.pdf" H 10650 5500 50  0001 C CNN
	1    10650 5700
	1    0    0    -1  
$EndComp
Connection ~ 10650 6200
Wire Wire Line
	10550 5000 11300 5000
Connection ~ 10550 5000
NoConn ~ 11150 5700
Wire Wire Line
	8950 8150 8950 8500
Wire Wire Line
	7650 8150 7650 8500
Wire Wire Line
	6350 8150 6350 8500
Wire Wire Line
	5050 8150 5050 8500
Wire Wire Line
	3750 8150 3750 8500
Wire Wire Line
	2450 8150 2450 8500
$Comp
L NixieClockMaster:HVSMPS-34063 U2
U 1 1 5F6ABFEC
P 8900 10100
F 0 "U2" H 8900 10475 50  0000 C CNN
F 1 "HVSMPS-34063" H 8900 10384 50  0000 C CNN
F 2 "NixieClockMaster:HVSMPS-34063" H 8900 10100 50  0001 C CNN
F 3 "" H 8900 10100 50  0001 C CNN
	1    8900 10100
	1    0    0    -1  
$EndComp
Wire Wire Line
	9600 9950 9800 9950
Wire Wire Line
	9600 10050 9850 10050
Wire Wire Line
	9850 10050 9850 10700
Wire Wire Line
	8150 10700 8150 10050
Wire Wire Line
	8150 10050 8200 10050
$Comp
L power:GND #PWR0102
U 1 1 5F748C65
P 9050 10800
F 0 "#PWR0102" H 9050 10550 50  0001 C CNN
F 1 "GND" H 9055 10627 50  0000 C CNN
F 2 "" H 9050 10800 50  0001 C CNN
F 3 "" H 9050 10800 50  0001 C CNN
	1    9050 10800
	1    0    0    -1  
$EndComp
Wire Wire Line
	9050 10800 9050 10700
Wire Wire Line
	8150 10700 9050 10700
Connection ~ 9050 10700
Wire Wire Line
	9050 10700 9850 10700
Wire Wire Line
	13350 5100 13600 5100
Wire Wire Line
	13600 5100 13600 5350
$Comp
L Jumper:SolderJumper_3_Open JP1
U 1 1 5F61D544
P 13600 5550
F 0 "JP1" V 13554 5618 50  0000 L CNN
F 1 "SolderJumper_3_Open" V 13645 5618 50  0000 L CNN
F 2 "NixieClockMaster:SOLDER-JUMPER_2-WAY" H 13600 5550 50  0001 C CNN
F 3 "~" H 13600 5550 50  0001 C CNN
	1    13600 5550
	0    1    1    0   
$EndComp
Wire Wire Line
	13600 5750 13600 6050
Wire Wire Line
	13600 6050 13350 6050
Text Label 13350 6050 0    50   ~ 0
VCC
Text Label 13350 5100 0    50   ~ 0
VIN
Text Label 13050 5550 0    50   ~ 0
VSup
Wire Wire Line
	13050 5550 13300 5550
Wire Wire Line
	13300 5550 13300 5500
Connection ~ 13300 5550
Wire Wire Line
	13300 5550 13450 5550
$Comp
L NixieClockMaster:PWR_FLAG #FLG0103
U 1 1 5F79CC82
P 13300 5500
F 0 "#FLG0103" H 13300 5765 50  0000 C CNN
F 1 "PWR_FLAG" H 13300 5674 50  0000 C CNN
F 2 "" H 13300 5500 50  0001 C CNN
F 3 "" H 13300 5500 50  0001 C CNN
	1    13300 5500
	1    0    0    -1  
$EndComp
$EndSCHEMATC
